HW4/hw4_1/transcript
# vsim -lib __work -c rf_bypass_hier_bench 
# //  ModelSim SE 5.8b Jan 01 2004 Linux 2.6.32-573.7.1.el6.x86_64
# //
# //  Copyright Model Technology, a Mentor Graphics Corporation company, 2004
# //                         All Rights Reserved.
# //                   UNPUBLISHED, LICENSED SOFTWARE.
# //         CONFIDENTIAL AND PROPRIETARY INFORMATION WHICH IS THE
# //        PROPERTY OF MENTOR GRAPHICS CORPORATION OR ITS LICENSORS.
# //
# Loading __work.rf_bypass_hier_bench
# Loading __work.rf_bypass_hier
# Loading __work.clkrst
# Loading __work.rf_bypass
# Loading __work.rf
# Loading __work.reg16
# Loading __work.dff
run -all
# Simulation 1000 cycles
# Cycle:    0 R1 Sel: 4 R1 Data:     0 Expected R1 Data:     0 R2 Sel: 1 R2 Data:     0 Expected R2 data:     0 W Sel: 3 W Data: 54793 W Enable: 1
# Cycle:    1 R1 Sel: 5 R1 Data:     0 Expected R1 Data:     0 R2 Sel: 5 R2 Data:     0 Expected R2 data:     0 W Sel: 1 W Data: 21010 W Enable: 1
# Cycle:    2 R1 Sel: 6 R1 Data:     0 Expected R1 Data:     0 R2 Sel: 5 R2 Data:     0 Expected R2 data:     0 W Sel: 4 W Data: 22509 W Enable: 1
# Cycle:    3 R1 Sel: 6 R1 Data:     0 Expected R1 Data:     0 R2 Sel: 5 R2 Data: 53930 Expected R2 data: 53930 W Sel: 5 W Data: 53930 W Enable: 1
# FYI: Read/write of same port in cycle    3
# Cycle:    4 R1 Sel: 2 R1 Data:     0 Expected R1 Data:     0 R2 Sel: 7 R2 Data:     0 Expected R2 data:     0 W Sel: 6 W Data: 27122 W Enable: 0
# Cycle:    5 R1 Sel: 5 R1 Data: 10429 Expected R1 Data: 10429 R2 Sel: 4 R2 Data: 22509 Expected R2 data: 22509 W Sel: 5 W Data: 10429 W Enable: 1
# FYI: Read/write of same port in cycle    5
# Cycle:    6 R1 Sel: 3 R1 Data:     0 Expected R1 Data:     0 R2 Sel: 2 R2 Data:     0 Expected R2 data:     0 W Sel: 0 W Data:  8832 W Enable: 0
# Cycle:    7 R1 Sel: 5 R1 Data: 47123 Expected R1 Data: 47123 R2 Sel: 6 R2 Data:     0 Expected R2 data:     0 W Sel: 5 W Data: 47123 W Enable: 1
# FYI: Read/write of same port in cycle    7
# Cycle:    8 R1 Sel: 3 R1 Data:     0 Expected R1 Data:     0 R2 Sel: 5 R2 Data: 47123 Expected R2 data: 47123 W Sel: 6 W Data: 18946 W Enable: 1
# Cycle:    9 R1 Sel: 7 R1 Data:     0 Expected R1 Data:     0 R2 Sel: 3 R2 Data:     0 Expected R2 data:     0 W Sel: 2 W Data: 25866 W Enable: 0
# Cycle:   10 R1 Sel: 2 R1 Data:     0 Expected R1 Data:     0 R2 Sel: 2 R2 Data:     0 Expected R2 data:     0 W Sel: 0 W Data: 45889 W Enable: 0
# FYI: Both read ports are same in cycle   10
# Cycle:   11 R1 Sel: 1 R1 Data:     0 Expected R1 Data:     0 R2 Sel: 3 R2 Data:     0 Expected R2 data:     0 W Sel: 6 W Data: 26038 W Enable: 0
# Cycle:   12 R1 Sel: 4 R1 Data: 22509 Expected R1 Data: 22509 R2 Sel: 2 R2 Data:     0 Expected R2 data:     0 W Sel: 1 W Data: 39435 W Enable: 1
# Cycle:   13 R1 Sel: 7 R1 Data:     0 Expected R1 Data:     0 R2 Sel: 3 R2 Data:     0 Expected R2 data:     0 W Sel: 6 W Data: 13114 W Enable: 1
# Cycle:   14 R1 Sel: 1 R1 Data: 39435 Expected R1 Data: 39435 R2 Sel: 1 R2 Data: 39435 Expected R2 data: 39435 W Sel: 4 W Data:  1890 W Enable: 1
# FYI: Both read ports are same in cycle   14
# Cycle:   15 R1 Sel: 7 R1 Data:     0 Expected R1 Data:     0 R2 Sel: 0 R2 Data:     0 Expected R2 data:     0 W Sel: 7 W Data: 24759 W Enable: 0
# Cycle:   16 R1 Sel: 3 R1 Data:     0 Expected R1 Data:     0 R2 Sel: 1 R2 Data: 39435 Expected R2 data: 39435 W Sel: 0 W Data: 12873 W Enable: 1
# Cycle:   17 R1 Sel: 1 R1 Data: 39435 Expected R1 Data: 39435 R2 Sel: 6 R2 Data: 13114 Expected R2 data: 13114 W Sel: 2 W Data: 32524 W Enable: 0
# Cycle:   18 R1 Sel: 7 R1 Data:     0 Expected R1 Data:     0 R2 Sel: 5 R2 Data: 47123 Expected R2 data: 47123 W Sel: 6 W Data: 56082 W Enable: 1
# Cycle:   19 R1 Sel: 1 R1 Data: 39435 Expected R1 Data: 39435 R2 Sel: 7 R2 Data:     0 Expected R2 data:     0 W Sel: 5 W Data: 63187 W Enable: 0
# Cycle:   20 R1 Sel: 3 R1 Data:     0 Expected R1 Data:     0 R2 Sel: 1 R2 Data: 39435 Expected R2 data: 39435 W Sel: 2 W Data: 44607 W Enable: 0
# Cycle:   21 R1 Sel: 6 R1 Data: 56082 Expected R1 Data: 56082 R2 Sel: 6 R2 Data: 56082 Expected R2 data: 56082 W Sel: 2 W Data: 62108 W Enable: 0
# FYI: Both read ports are same in cycle   21
# Cycle:   22 R1 Sel: 3 R1 Data: 43055 Expected R1 Data: 43055 R2 Sel: 3 R2 Data: 43055 Expected R2 data: 43055 W Sel: 3 W Data: 43055 W Enable: 1
# FYI: Both read ports are same in cycle   22
# FYI: Read/write of same port in cycle   22
# Cycle:   23 R1 Sel: 4 R1 Data:  1890 Expected R1 Data:  1890 R2 Sel: 7 R2 Data:     0 Expected R2 data:     0 W Sel: 6 W Data: 14027 W Enable: 0
# Cycle:   24 R1 Sel: 1 R1 Data: 39435 Expected R1 Data: 39435 R2 Sel: 5 R2 Data: 27866 Expected R2 data: 27866 W Sel: 5 W Data: 27866 W Enable: 1
# FYI: Read/write of same port in cycle   24
# Cycle:   25 R1 Sel: 7 R1 Data:     0 Expected R1 Data:     0 R2 Sel: 1 R2 Data: 39435 Expected R2 data: 39435 W Sel: 0 W Data: 65348 W Enable: 0
# Cycle:   26 R1 Sel: 3 R1 Data: 43055 Expected R1 Data: 43055 R2 Sel: 6 R2 Data: 56082 Expected R2 data: 56082 W Sel: 2 W Data: 44508 W Enable: 1
# Cycle:   27 R1 Sel: 3 R1 Data: 43055 Expected R1 Data: 43055 R2 Sel: 6 R2 Data: 56082 Expected R2 data: 56082 W Sel: 7 W Data: 59726 W Enable: 0
# Cycle:   28 R1 Sel: 6 R1 Data: 56082 Expected R1 Data: 56082 R2 Sel: 0 R2 Data: 12873 Expected R2 data: 12873 W Sel: 0 W Data: 34681 W Enable: 0
# Cycle:   29 R1 Sel: 3 R1 Data: 51801 Expected R1 Data: 51801 R2 Sel: 4 R2 Data:  1890 Expected R2 data:  1890 W Sel: 3 W Data: 51801 W Enable: 1
# FYI: Read/write of same port in cycle   29
# Cycle:   30 R1 Sel: 1 R1 Data: 39435 Expected R1 Data: 39435 R2 Sel: 5 R2 Data: 27866 Expected R2 data: 27866 W Sel: 2 W Data: 57974 W Enable: 0
# Cycle:   31 R1 Sel: 5 R1 Data: 27866 Expected R1 Data: 27866 R2 Sel: 6 R2 Data: 56082 Expected R2 data: 56082 W Sel: 7 W Data: 39684 W Enable: 1
# Cycle:   32 R1 Sel: 4 R1 Data:  1890 Expected R1 Data:  1890 R2 Sel: 0 R2 Data: 12873 Expected R2 data: 12873 W Sel: 5 W Data: 55592 W Enable: 1
# Cycle:   33 R1 Sel: 6 R1 Data: 56082 Expected R1 Data: 56082 R2 Sel: 0 R2 Data: 12873 Expected R2 data: 12873 W Sel: 5 W Data: 17692 W Enable: 1
# Cycle:   34 R1 Sel: 4 R1 Data:  1890 Expected R1 Data:  1890 R2 Sel: 6 R2 Data: 56082 Expected R2 data: 56082 W Sel: 5 W Data:  2266 W Enable: 0
# Cycle:   35 R1 Sel: 0 R1 Data: 12873 Expected R1 Data: 12873 R2 Sel: 3 R2 Data: 51801 Expected R2 data: 51801 W Sel: 6 W Data: 39354 W Enable: 0
# Cycle:   36 R1 Sel: 5 R1 Data: 17692 Expected R1 Data: 17692 R2 Sel: 2 R2 Data: 44508 Expected R2 data: 44508 W Sel: 7 W Data:   185 W Enable: 0
# Cycle:   37 R1 Sel: 0 R1 Data: 12873 Expected R1 Data: 12873 R2 Sel: 6 R2 Data: 56082 Expected R2 data: 56082 W Sel: 5 W Data:  6838 W Enable: 0
# Cycle:   38 R1 Sel: 6 R1 Data: 56082 Expected R1 Data: 56082 R2 Sel: 0 R2 Data: 12873 Expected R2 data: 12873 W Sel: 3 W Data: 39806 W Enable: 1
# Cycle:   39 R1 Sel: 1 R1 Data: 39435 Expected R1 Data: 39435 R2 Sel: 2 R2 Data: 44508 Expected R2 data: 44508 W Sel: 7 W Data: 61025 W Enable: 1
# Cycle:   40 R1 Sel: 6 R1 Data: 56082 Expected R1 Data: 56082 R2 Sel: 0 R2 Data: 12873 Expected R2 data: 12873 W Sel: 5 W Data: 23029 W Enable: 1
# Cycle:   41 R1 Sel: 1 R1 Data: 39435 Expected R1 Data: 39435 R2 Sel: 5 R2 Data: 23029 Expected R2 data: 23029 W Sel: 3 W Data: 46232 W Enable: 1
# Cycle:   42 R1 Sel: 4 R1 Data:  1890 Expected R1 Data:  1890 R2 Sel: 2 R2 Data: 44508 Expected R2 data: 44508 W Sel: 0 W Data: 53582 W Enable: 1
# Cycle:   43 R1 Sel: 1 R1 Data: 39435 Expected R1 Data: 39435 R2 Sel: 6 R2 Data: 56082 Expected R2 data: 56082 W Sel: 7 W Data: 26342 W Enable: 0
# Cycle:   44 R1 Sel: 2 R1 Data: 44508 Expected R1 Data: 44508 R2 Sel: 5 R2 Data: 23029 Expected R2 data: 23029 W Sel: 0 W Data: 65438 W Enable: 1
# Cycle:   45 R1 Sel: 0 R1 Data: 65438 Expected R1 Data: 65438 R2 Sel: 2 R2 Data: 44508 Expected R2 data: 44508 W Sel: 3 W Data: 16659 W Enable: 1
# Cycle:   46 R1 Sel: 6 R1 Data: 56082 Expected R1 Data: 56082 R2 Sel: 2 R2 Data: 44508 Expected R2 data: 44508 W Sel: 1 W Data: 43972 W Enable: 0
# Cycle:   47 R1 Sel: 4 R1 Data:  1890 Expected R1 Data:  1890 R2 Sel: 7 R2 Data: 61025 Expected R2 data: 61025 W Sel: 2 W Data: 36998 W Enable: 0
# Cycle:   48 R1 Sel: 2 R1 Data: 44508 Expected R1 Data: 44508 R2 Sel: 5 R2 Data: 23029 Expected R2 data: 23029 W Sel: 4 W Data: 52612 W Enable: 0
# Cycle:   49 R1 Sel: 1 R1 Data: 39435 Expected R1 Data: 39435 R2 Sel: 1 R2 Data: 39435 Expected R2 data: 39435 W Sel: 3 W Data: 43406 W Enable: 1
# FYI: Both read ports are same in cycle   49
# Cycle:   50 R1 Sel: 7 R1 Data: 61025 Expected R1 Data: 61025 R2 Sel: 1 R2 Data: 39435 Expected R2 data: 39435 W Sel: 5 W Data: 58678 W Enable: 1
# Cycle:   51 R1 Sel: 3 R1 Data: 43406 Expected R1 Data: 43406 R2 Sel: 0 R2 Data: 65438 Expected R2 data: 65438 W Sel: 3 W Data: 46254 W Enable: 0
# Cycle:   52 R1 Sel: 0 R1 Data: 65438 Expected R1 Data: 65438 R2 Sel: 5 R2 Data: 58678 Expected R2 data: 58678 W Sel: 2 W Data: 24395 W Enable: 0
# Cycle:   53 R1 Sel: 5 R1 Data: 58678 Expected R1 Data: 58678 R2 Sel: 4 R2 Data:  1890 Expected R2 data:  1890 W Sel: 1 W Data: 40216 W Enable: 0
# Cycle:   54 R1 Sel: 1 R1 Data: 39435 Expected R1 Data: 39435 R2 Sel: 3 R2 Data: 43406 Expected R2 data: 43406 W Sel: 3 W Data: 63960 W Enable: 0
# Cycle:   55 R1 Sel: 3 R1 Data: 43406 Expected R1 Data: 43406 R2 Sel: 2 R2 Data: 44508 Expected R2 data: 44508 W Sel: 3 W Data: 57860 W Enable: 0
# Cycle:   56 R1 Sel: 2 R1 Data: 44508 Expected R1 Data: 44508 R2 Sel: 0 R2 Data: 65438 Expected R2 data: 65438 W Sel: 5 W Data:  4665 W Enable: 1
# Cycle:   57 R1 Sel: 3 R1 Data: 43406 Expected R1 Data: 43406 R2 Sel: 1 R2 Data: 39435 Expected R2 data: 39435 W Sel: 7 W Data: 34248 W Enable: 1
# Cycle:   58 R1 Sel: 7 R1 Data: 34248 Expected R1 Data: 34248 R2 Sel: 4 R2 Data:  1890 Expected R2 data:  1890 W Sel: 6 W Data:  9048 W Enable: 0
# Cycle:   59 R1 Sel: 2 R1 Data: 44508 Expected R1 Data: 44508 R2 Sel: 6 R2 Data: 56082 Expected R2 data: 56082 W Sel: 5 W Data: 58033 W Enable: 1
# Cycle:   60 R1 Sel: 3 R1 Data: 43406 Expected R1 Data: 43406 R2 Sel: 5 R2 Data: 58033 Expected R2 data: 58033 W Sel: 7 W Data:   941 W Enable: 0
# Cycle:   61 R1 Sel: 7 R1 Data: 34248 Expected R1 Data: 34248 R2 Sel: 7 R2 Data: 34248 Expected R2 data: 34248 W Sel: 1 W Data: 37049 W Enable: 1
# FYI: Both read ports are same in cycle   61
# Cycle:   62 R1 Sel: 1 R1 Data: 37049 Expected R1 Data: 37049 R2 Sel: 1 R2 Data: 37049 Expected R2 data: 37049 W Sel: 2 W Data: 24225 W Enable: 0
# FYI: Both read ports are same in cycle   62
# Cycle:   63 R1 Sel: 5 R1 Data: 58033 Expected R1 Data: 58033 R2 Sel: 3 R2 Data: 43406 Expected R2 data: 43406 W Sel: 2 W Data: 17020 W Enable: 0
# Cycle:   64 R1 Sel: 0 R1 Data: 65438 Expected R1 Data: 65438 R2 Sel: 7 R2 Data: 34248 Expected R2 data: 34248 W Sel: 0 W Data:  3462 W Enable: 0
# Cycle:   65 R1 Sel: 0 R1 Data: 65438 Expected R1 Data: 65438 R2 Sel: 0 R2 Data: 65438 Expected R2 data: 65438 W Sel: 5 W Data: 43510 W Enable: 0
# FYI: Both read ports are same in cycle   65
# Cycle:   66 R1 Sel: 4 R1 Data:  1890 Expected R1 Data:  1890 R2 Sel: 1 R2 Data: 37049 Expected R2 data: 37049 W Sel: 4 W Data: 27312 W Enable: 0
# Cycle:   67 R1 Sel: 2 R1 Data: 44508 Expected R1 Data: 44508 R2 Sel: 5 R2 Data: 58033 Expected R2 data: 58033 W Sel: 7 W Data: 20193 W Enable: 1
# Cycle:   68 R1 Sel: 1 R1 Data: 52005 Expected R1 Data: 52005 R2 Sel: 6 R2 Data: 56082 Expected R2 data: 56082 W Sel: 1 W Data: 52005 W Enable: 1
# FYI: Read/write of same port in cycle   68
# Cycle:   69 R1 Sel: 2 R1 Data: 44508 Expected R1 Data: 44508 R2 Sel: 7 R2 Data: 20193 Expected R2 data: 20193 W Sel: 4 W Data: 31532 W Enable: 1
# Cycle:   70 R1 Sel: 3 R1 Data: 43406 Expected R1 Data: 43406 R2 Sel: 6 R2 Data: 56082 Expected R2 data: 56082 W Sel: 6 W Data: 49911 W Enable: 0
# Cycle:   71 R1 Sel: 5 R1 Data: 58033 Expected R1 Data: 58033 R2 Sel: 0 R2 Data: 65438 Expected R2 data: 65438 W Sel: 2 W Data:  4768 W Enable: 0
# Cycle:   72 R1 Sel: 5 R1 Data: 58033 Expected R1 Data: 58033 R2 Sel: 5 R2 Data: 58033 Expected R2 data: 58033 W Sel: 1 W Data: 39243 W Enable: 0
# FYI: Both read ports are same in cycle   72
# Cycle:   73 R1 Sel: 5 R1 Data: 58033 Expected R1 Data: 58033 R2 Sel: 3 R2 Data: 29583 Expected R2 data: 29583 W Sel: 3 W Data: 29583 W Enable: 1
# FYI: Read/write of same port in cycle   73
# Cycle:   74 R1 Sel: 5 R1 Data: 58033 Expected R1 Data: 58033 R2 Sel: 1 R2 Data: 52005 Expected R2 data: 52005 W Sel: 5 W Data: 40772 W Enable: 0
# Cycle:   75 R1 Sel: 5 R1 Data: 58033 Expected R1 Data: 58033 R2 Sel: 2 R2 Data: 44508 Expected R2 data: 44508 W Sel: 5 W Data: 23544 W Enable: 0
# Cycle:   76 R1 Sel: 4 R1 Data: 31532 Expected R1 Data: 31532 R2 Sel: 6 R2 Data: 56082 Expected R2 data: 56082 W Sel: 0 W Data: 37516 W Enable: 1
# Cycle:   77 R1 Sel: 2 R1 Data: 44508 Expected R1 Data: 44508 R2 Sel: 4 R2 Data: 31532 Expected R2 data: 31532 W Sel: 4 W Data: 48298 W Enable: 0
# Cycle:   78 R1 Sel: 2 R1 Data: 44508 Expected R1 Data: 44508 R2 Sel: 3 R2 Data: 29583 Expected R2 data: 29583 W Sel: 5 W Data: 65190 W Enable: 0
# Cycle:   79 R1 Sel: 2 R1 Data: 44508 Expected R1 Data: 44508 R2 Sel: 1 R2 Data: 52005 Expected R2 data: 52005 W Sel: 5 W Data: 45076 W Enable: 1
# Cycle:   80 R1 Sel: 4 R1 Data: 31532 Expected R1 Data: 31532 R2 Sel: 7 R2 Data: 20193 Expected R2 data: 20193 W Sel: 1 W Data: 38790 W Enable: 0
# Cycle:   81 R1 Sel: 0 R1 Data: 37516 Expected R1 Data: 37516 R2 Sel: 4 R2 Data: 31532 Expected R2 data: 31532 W Sel: 7 W Data: 17804 W Enable: 0
# Cycle:   82 R1 Sel: 1 R1 Data: 52005 Expected R1 Data: 52005 R2 Sel: 0 R2 Data: 37516 Expected R2 data: 37516 W Sel: 3 W Data: 40523 W Enable: 0
# Cycle:   83 R1 Sel: 3 R1 Data: 29583 Expected R1 Data: 29583 R2 Sel: 4 R2 Data: 31532 Expected R2 data: 31532 W Sel: 1 W Data: 26057 W Enable: 1
# Cycle:   84 R1 Sel: 4 R1 Data: 31532 Expected R1 Data: 31532 R2 Sel: 7 R2 Data: 20193 Expected R2 data: 20193 W Sel: 0 W Data: 16797 W Enable: 0
# Cycle:   85 R1 Sel: 1 R1 Data: 26057 Expected R1 Data: 26057 R2 Sel: 1 R2 Data: 26057 Expected R2 data: 26057 W Sel: 4 W Data: 46880 W Enable: 1
# FYI: Both read ports are same in cycle   85
# Cycle:   86 R1 Sel: 3 R1 Data: 29583 Expected R1 Data: 29583 R2 Sel: 2 R2 Data: 44508 Expected R2 data: 44508 W Sel: 5 W Data: 63688 W Enable: 0
# Cycle:   87 R1 Sel: 4 R1 Data: 46880 Expected R1 Data: 46880 R2 Sel: 3 R2 Data: 29583 Expected R2 data: 29583 W Sel: 2 W Data: 32569 W Enable: 0
# Cycle:   88 R1 Sel: 1 R1 Data: 26057 Expected R1 Data: 26057 R2 Sel: 0 R2 Data: 37516 Expected R2 data: 37516 W Sel: 7 W Data: 60014 W Enable: 1
# Cycle:   89 R1 Sel: 6 R1 Data: 56082 Expected R1 Data: 56082 R2 Sel: 3 R2 Data: 29583 Expected R2 data: 29583 W Sel: 7 W Data: 31744 W Enable: 1
# Cycle:   90 R1 Sel: 4 R1 Data: 46880 Expected R1 Data: 46880 R2 Sel: 1 R2 Data: 26057 Expected R2 data: 26057 W Sel: 7 W Data: 18885 W Enable: 0
# Cycle:   91 R1 Sel: 1 R1 Data: 26057 Expected R1 Data: 26057 R2 Sel: 1 R2 Data: 26057 Expected R2 data: 26057 W Sel: 2 W Data: 52599 W Enable: 0
# FYI: Both read ports are same in cycle   91
# Cycle:   92 R1 Sel: 3 R1 Data: 29583 Expected R1 Data: 29583 R2 Sel: 4 R2 Data: 46880 Expected R2 data: 46880 W Sel: 7 W Data: 45496 W Enable: 0
# Cycle:   93 R1 Sel: 0 R1 Data: 37516 Expected R1 Data: 37516 R2 Sel: 7 R2 Data: 31744 Expected R2 data: 31744 W Sel: 4 W Data: 51125 W Enable: 1
# Cycle:   94 R1 Sel: 6 R1 Data: 56082 Expected R1 Data: 56082 R2 Sel: 1 R2 Data: 35723 Expected R2 data: 35723 W Sel: 1 W Data: 35723 W Enable: 1
# FYI: Read/write of same port in cycle   94
# Cycle:   95 R1 Sel: 0 R1 Data: 56005 Expected R1 Data: 56005 R2 Sel: 2 R2 Data: 44508 Expected R2 data: 44508 W Sel: 0 W Data: 56005 W Enable: 1
# FYI: Read/write of same port in cycle   95
# Cycle:   96 R1 Sel: 6 R1 Data: 56082 Expected R1 Data: 56082 R2 Sel: 7 R2 Data: 31744 Expected R2 data: 31744 W Sel: 0 W Data: 28393 W Enable: 0
# Cycle:   97 R1 Sel: 7 R1 Data: 31744 Expected R1 Data: 31744 R2 Sel: 1 R2 Data: 35723 Expected R2 data: 35723 W Sel: 6 W Data: 31893 W Enable: 0
# Cycle:   98 R1 Sel: 5 R1 Data: 45076 Expected R1 Data: 45076 R2 Sel: 0 R2 Data: 56005 Expected R2 data: 56005 W Sel: 1 W Data: 32100 W Enable: 1
# Cycle:   99 R1 Sel: 7 R1 Data: 31744 Expected R1 Data: 31744 R2 Sel: 6 R2 Data: 56082 Expected R2 data: 56082 W Sel: 5 W Data: 62849 W Enable: 0
# Cycle:  100 R1 Sel: 0 R1 Data: 56005 Expected R1 Data: 56005 R2 Sel: 2 R2 Data: 44508 Expected R2 data: 44508 W Sel: 1 W Data: 49935 W Enable: 1
# Cycle:  101 R1 Sel: 6 R1 Data: 56082 Expected R1 Data: 56082 R2 Sel: 2 R2 Data: 44508 Expected R2 data: 44508 W Sel: 1 W Data: 19772 W Enable: 1
# Cycle:  102 R1 Sel: 3 R1 Data: 29583 Expected R1 Data: 29583 R2 Sel: 7 R2 Data: 31744 Expected R2 data: 31744 W Sel: 1 W Data: 39754 W Enable: 1
# Cycle:  103 R1 Sel: 3 R1 Data: 29583 Expected R1 Data: 29583 R2 Sel: 5 R2 Data: 45076 Expected R2 data: 45076 W Sel: 7 W Data: 10065 W Enable: 1
# Cycle:  104 R1 Sel: 2 R1 Data: 44508 Expected R1 Data: 44508 R2 Sel: 1 R2 Data: 39754 Expected R2 data: 39754 W Sel: 4 W Data:  1890 W Enable: 0
# Cycle:  105 R1 Sel: 5 R1 Data: 41957 Expected R1 Data: 41957 R2 Sel: 1 R2 Data: 39754 Expected R2 data: 39754 W Sel: 5 W Data: 41957 W Enable: 1
# FYI: Read/write of same port in cycle  105
# Cycle:  106 R1 Sel: 1 R1 Data: 39754 Expected R1 Data: 39754 R2 Sel: 7 R2 Data: 10065 Expected R2 data: 10065 W Sel: 5 W Data:  7387 W Enable: 0
# Cycle:  107 R1 Sel: 6 R1 Data: 56082 Expected R1 Data: 56082 R2 Sel: 2 R2 Data: 44508 Expected R2 data: 44508 W Sel: 2 W Data: 15805 W Enable: 0
# Cycle:  108 R1 Sel: 0 R1 Data: 56005 Expected R1 Data: 56005 R2 Sel: 3 R2 Data: 29583 Expected R2 data: 29583 W Sel: 0 W Data: 22565 W Enable: 0
# Cycle:  109 R1 Sel: 4 R1 Data: 51125 Expected R1 Data: 51125 R2 Sel: 3 R2 Data: 29583 Expected R2 data: 29583 W Sel: 0 W Data: 43897 W Enable: 1
# Cycle:  110 R1 Sel: 6 R1 Data: 56082 Expected R1 Data: 56082 R2 Sel: 3 R2 Data: 29583 Expected R2 data: 29583 W Sel: 6 W Data:   780 W Enable: 0
# Cycle:  111 R1 Sel: 1 R1 Data: 39754 Expected R1 Data: 39754 R2 Sel: 1 R2 Data: 39754 Expected R2 data: 39754 W Sel: 4 W Data: 49331 W Enable: 1
# FYI: Both read ports are same in cycle  111
# Cycle:  112 R1 Sel: 4 R1 Data: 49331 Expected R1 Data: 49331 R2 Sel: 1 R2 Data: 39754 Expected R2 data: 39754 W Sel: 5 W Data: 37634 W Enable: 1
# Cycle:  113 R1 Sel: 6 R1 Data: 56082 Expected R1 Data: 56082 R2 Sel: 2 R2 Data: 44508 Expected R2 data: 44508 W Sel: 0 W Data: 20920 W Enable: 1
# Cycle:  114 R1 Sel: 7 R1 Data: 10065 Expected R1 Data: 10065 R2 Sel: 0 R2 Data: 20920 Expected R2 data: 20920 W Sel: 5 W Data:  2448 W Enable: 0
# Cycle:  115 R1 Sel: 3 R1 Data: 29583 Expected R1 Data: 29583 R2 Sel: 0 R2 Data: 20920 Expected R2 data: 20920 W Sel: 5 W Data:   805 W Enable: 0
# Cycle:  116 R1 Sel: 5 R1 Data: 37634 Expected R1 Data: 37634 R2 Sel: 1 R2 Data: 39754 Expected R2 data: 39754 W Sel: 0 W Data: 20924 W Enable: 0
# Cycle:  117 R1 Sel: 0 R1 Data: 20920 Expected R1 Data: 20920 R2 Sel: 1 R2 Data: 39754 Expected R2 data: 39754 W Sel: 5 W Data: 16205 W Enable: 1
# Cycle:  118 R1 Sel: 5 R1 Data: 16205 Expected R1 Data: 16205 R2 Sel: 4 R2 Data: 49331 Expected R2 data: 49331 W Sel: 4 W Data: 42602 W Enable: 0
# Cycle:  119 R1 Sel: 6 R1 Data: 56082 Expected R1 Data: 56082 R2 Sel: 2 R2 Data: 44508 Expected R2 data: 44508 W Sel: 7 W Data:  2886 W Enable: 1
# Cycle:  120 R1 Sel: 5 R1 Data: 16205 Expected R1 Data: 16205 R2 Sel: 7 R2 Data:  2886 Expected R2 data:  2886 W Sel: 3 W Data: 61765 W Enable: 1
# Cycle:  121 R1 Sel: 6 R1 Data: 56082 Expected R1 Data: 56082 R2 Sel: 0 R2 Data: 20920 Expected R2 data: 20920 W Sel: 0 W Data: 58398 W Enable: 0
# Cycle:  122 R1 Sel: 4 R1 Data: 49331 Expected R1 Data: 49331 R2 Sel: 1 R2 Data: 39754 Expected R2 data: 39754 W Sel: 0 W Data:  8107 W Enable: 1
# Cycle:  123 R1 Sel: 0 R1 Data:  8107 Expected R1 Data:  8107 R2 Sel: 5 R2 Data: 16205 Expected R2 data: 16205 W Sel: 3 W Data: 42893 W Enable: 0
# Cycle:  124 R1 Sel: 4 R1 Data: 49331 Expected R1 Data: 49331 R2 Sel: 4 R2 Data: 49331 Expected R2 data: 49331 W Sel: 5 W Data: 36121 W Enable: 0
# FYI: Both read ports are same in cycle  124
# Cycle:  125 R1 Sel: 3 R1 Data: 61765 Expected R1 Data: 61765 R2 Sel: 0 R2 Data:  8107 Expected R2 data:  8107 W Sel: 4 W Data: 27588 W Enable: 0
# Cycle:  126 R1 Sel: 2 R1 Data: 44508 Expected R1 Data: 44508 R2 Sel: 0 R2 Data:  8107 Expected R2 data:  8107 W Sel: 2 W Data: 26309 W Enable: 0
# Cycle:  127 R1 Sel: 3 R1 Data: 61765 Expected R1 Data: 61765 R2 Sel: 2 R2 Data: 44508 Expected R2 data: 44508 W Sel: 1 W Data: 25356 W Enable: 1
# Cycle:  128 R1 Sel: 3 R1 Data: 61765 Expected R1 Data: 61765 R2 Sel: 0 R2 Data:  8107 Expected R2 data:  8107 W Sel: 1 W Data:  1010 W Enable: 1
# Cycle:  129 R1 Sel: 3 R1 Data: 61765 Expected R1 Data: 61765 R2 Sel: 5 R2 Data: 49512 Expected R2 data: 49512 W Sel: 5 W Data: 49512 W Enable: 1
# FYI: Read/write of same port in cycle  129
# Cycle:  130 R1 Sel: 3 R1 Data: 61765 Expected R1 Data: 61765 R2 Sel: 3 R2 Data: 61765 Expected R2 data: 61765 W Sel: 5 W Data: 16000 W Enable: 0
# FYI: Both read ports are same in cycle  130
# Cycle:  131 R1 Sel: 4 R1 Data: 49331 Expected R1 Data: 49331 R2 Sel: 7 R2 Data:  2886 Expected R2 data:  2886 W Sel: 2 W Data: 35638 W Enable: 1
# Cycle:  132 R1 Sel: 4 R1 Data: 49331 Expected R1 Data: 49331 R2 Sel: 6 R2 Data: 56082 Expected R2 data: 56082 W Sel: 0 W Data: 60586 W Enable: 0
# Cycle:  133 R1 Sel: 4 R1 Data: 49331 Expected R1 Data: 49331 R2 Sel: 1 R2 Data:  1010 Expected R2 data:  1010 W Sel: 4 W Data: 36859 W Enable: 0
# Cycle:  134 R1 Sel: 7 R1 Data:  2886 Expected R1 Data:  2886 R2 Sel: 1 R2 Data:  1010 Expected R2 data:  1010 W Sel: 5 W Data:  8683 W Enable: 1
# Cycle:  135 R1 Sel: 7 R1 Data:  2886 Expected R1 Data:  2886 R2 Sel: 7 R2 Data:  2886 Expected R2 data:  2886 W Sel: 3 W Data: 10928 W Enable: 0
# FYI: Both read ports are same in cycle  135
# Cycle:  136 R1 Sel: 2 R1 Data: 35638 Expected R1 Data: 35638 R2 Sel: 2 R2 Data: 35638 Expected R2 data: 35638 W Sel: 7 W Data: 42865 W Enable: 0
# FYI: Both read ports are same in cycle  136
# Cycle:  137 R1 Sel: 1 R1 Data:  1010 Expected R1 Data:  1010 R2 Sel: 5 R2 Data:  8683 Expected R2 data:  8683 W Sel: 4 W Data: 17157 W Enable: 0
# Cycle:  138 R1 Sel: 4 R1 Data: 49331 Expected R1 Data: 49331 R2 Sel: 2 R2 Data: 35638 Expected R2 data: 35638 W Sel: 7 W Data: 19045 W Enable: 1
# Cycle:  139 R1 Sel: 6 R1 Data: 56082 Expected R1 Data: 56082 R2 Sel: 5 R2 Data:  8683 Expected R2 data:  8683 W Sel: 0 W Data:  3646 W Enable: 0
# Cycle:  140 R1 Sel: 0 R1 Data: 19730 Expected R1 Data: 19730 R2 Sel: 6 R2 Data: 56082 Expected R2 data: 56082 W Sel: 0 W Data: 19730 W Enable: 1
# FYI: Read/write of same port in cycle  140
# Cycle:  141 R1 Sel: 6 R1 Data: 56082 Expected R1 Data: 56082 R2 Sel: 6 R2 Data: 56082 Expected R2 data: 56082 W Sel: 3 W Data:  2547 W Enable: 1
# FYI: Both read ports are same in cycle  141
# Cycle:  142 R1 Sel: 7 R1 Data: 19045 Expected R1 Data: 19045 R2 Sel: 7 R2 Data: 19045 Expected R2 data: 19045 W Sel: 2 W Data: 46612 W Enable: 0
# FYI: Both read ports are same in cycle  142
# Cycle:  143 R1 Sel: 4 R1 Data: 49331 Expected R1 Data: 49331 R2 Sel: 3 R2 Data:  2547 Expected R2 data:  2547 W Sel: 4 W Data: 49771 W Enable: 0
